…
    ## Rows: 91520 Columns: 16
    ## ── Column specification ────────────────────────────────────────────────────────
    ## Delimiter: ","
    ## chr (12): RowId, LocationAbbr, Topic, Data_Value_Type, Data_Value_Unit, Brea...
    ## dbl  (4): YearStart, Data_Value, Data_Value_Alt, LocationId
    ## 
    ## ℹ Use `spec()` to retrieve the full column specification for this data.
    ## ℹ Specify the column types or set `show_col_types = FALSE` to quiet this message.

``` r
clean_df <- clean_names(df_raw) #lower case all col, no spaces
print(clean_df)
```

    ## # A tibble: 91,520 × 16
    ##    row_id         year_start location_abbr topic data_value_type data_value_unit
    ##    <chr>               <dbl> <chr>         <chr> <chr>           <chr>          
    ##  1 NVSS~2010~1~N…       2010 AL            Majo… Age-Standardiz… Rate per 100,0…
    ##  2 NVSS~2010~1~N…       2010 AL            Majo… Crude           Rate per 100,0…
    ##  3 NVSS~2010~1~N…       2010 AL            Majo… Crude           Rate per 100,0…
    ##  4 NVSS~2010~1~N…       2010 AL            Majo… Age-Standardiz… Rate per 100,0…
    ##  5 NVSS~2010~1~N…       2010 AL            Majo… Age-Standardiz… Rate per 100,0…
    ##  6 NVSS~2010~1~N…       2010 AL            Majo… Crude           Rate per 100,0…
    ##  7 NVSS~2010~1~N…       2010 AL            Majo… Crude           Rate per 100,0…
    ##  8 NVSS~2010~1~N…       2010 AL            Majo… Crude           Rate per 100,0…
    ##  9 NVSS~2010~1~N…       2010 AL            Majo… Crude           Rate per 100,0…
    ## 10 NVSS~2010~1~N…       2010 AL            Majo… Crude           Rate per 100,0…
    ## # ℹ 91,510 more rows
    ## # ℹ 10 more variables: data_value <dbl>, data_value_alt <dbl>,
    ## #   break_out_category <chr>, break_out <chr>, class_id <chr>, topic_id <chr>,
    ## #   data_value_type_id <chr>, break_out_category_id <chr>, break_out_id <chr>,
    ## #   location_id <dbl>
…
``` r
df_age1.1 <- clean_df1 %>% #filter 2020, omit 'overall" from break_out, exclude negative #'s, type id "age" = break out category is gender/race only
  filter(data_value_type_id == "AgeStdz") %>%
  filter(year_start != "2020") %>%
  filter(break_out_category != "Overall") %>%
  filter(data_value_alt > 0)
print(df_age1.1)
```

    ## # A tibble: 20,468 × 16
    ##    row_id         year_start location_abbr topic data_value_type data_value_unit
    ##    <chr>               <dbl> <chr>         <chr> <chr>           <chr>          
    ##  1 NVSS~2010~1~N…       2010 AL            Majo… Age-Standardiz… Rate per 100,0…
    ##  2 NVSS~2010~1~N…       2010 AL            Majo… Age-Standardiz… Rate per 100,0…
    ##  3 NVSS~2010~1~N…       2010 AL            Majo… Age-Standardiz… Rate per 100,0…
    ##  4 NVSS~2010~1~N…       2010 AL            Majo… Age-Standardiz… Rate per 100,0…
    ##  5 NVSS~2010~1~N…       2010 AL            Majo… Age-Standardiz… Rate per 100,0…
    ##  6 NVSS~2010~1~N…       2010 AL            Majo… Age-Standardiz… Rate per 100,0…
    ##  7 NVSS~2010~2~N…       2010 AK            Majo… Age-Standardiz… Rate per 100,0…
    ##  8 NVSS~2010~2~N…       2010 AK            Majo… Age-Standardiz… Rate per 100,0…
    ##  9 NVSS~2010~2~N…       2010 AK            Majo… Age-Standardiz… Rate per 100,0…
    ## 10 NVSS~2010~2~N…       2010 AK            Majo… Age-Standardiz… Rate per 100,0…
    ## # ℹ 20,458 more rows
    ## # ℹ 10 more variables: data_value <dbl>, data_value_alt <dbl>,
    ## #   break_out_category <chr>, break_out <chr>, class_id <chr>, topic_id <chr>,
    ## #   data_value_type_id <chr>, break_out_category_id <chr>, break_out_id <chr>,
    ## #   location_id <dbl>

``` r
#remove columns outside objective
df_age1 <- df_age1.1[, c(1:4, 7, 9:10)]
print(df_age1)
```

    ## # A tibble: 20,468 × 7
    ##    row_id year_start location_abbr topic data_value break_out_category break_out
    ##    <chr>       <dbl> <chr>         <chr>      <dbl> <chr>              <chr>    
    ##  1 NVSS~…       2010 AL            Majo…       416. Gender             Male     
    ##  2 NVSS~…       2010 AL            Majo…       352. Gender             Female   
    ##  3 NVSS~…       2010 AL            Majo…       370. Race               Non-Hisp…
    ##  4 NVSS~…       2010 AL            Majo…       453. Race               Non-Hisp…
    ##  5 NVSS~…       2010 AL            Majo…       102. Race               Hispanic 
    ##  6 NVSS~…       2010 AL            Majo…       133. Race               Other    
    ##  7 NVSS~…       2010 AK            Majo…       236. Gender             Male     
    ##  8 NVSS~…       2010 AK            Majo…       177  Gender             Female   
    ##  9 NVSS~…       2010 AK            Majo…       196. Race               Non-Hisp…
    ## 10 NVSS~…       2010 AK            Majo…       268. Race               Other    
    ## # ℹ 20,458 more rows

#### Clean Filtered Data

- Rename columns, race groups to ease understanding of values (simple
  terms)
- Group HD types that did not include a specification (i.e. “Stroke”)

``` r
#rename columns
new_names <- c("year", "state", "type", "rate", "group", "sub_group")
colnames(df_age1)[c(2:7)] <- new_names
print(df_age1)
```

    ## # A tibble: 20,468 × 7
    ##    row_id                                 year state type   rate group sub_group
    ##    <chr>                                 <dbl> <chr> <chr> <dbl> <chr> <chr>    
    ##  1 NVSS~2010~1~NV001~GEN01~Age-Standard…  2010 AL    Majo…  416. Gend… Male     
    ##  2 NVSS~2010~1~NV001~GEN02~Age-Standard…  2010 AL    Majo…  352. Gend… Female   
    ##  3 NVSS~2010~1~NV001~RAC01~Age-Standard…  2010 AL    Majo…  370. Race  Non-Hisp…
    ##  4 NVSS~2010~1~NV001~RAC02~Age-Standard…  2010 AL    Majo…  453. Race  Non-Hisp…
    ##  5 NVSS~2010~1~NV001~RAC04~Age-Standard…  2010 AL    Majo…  102. Race  Hispanic 
    ##  6 NVSS~2010~1~NV001~RAC07~Age-Standard…  2010 AL    Majo…  133. Race  Other    
    ##  7 NVSS~2010~2~NV001~GEN01~Age-Standard…  2010 AK    Majo…  236. Gend… Male     
    ##  8 NVSS~2010~2~NV001~GEN02~Age-Standard…  2010 AK    Majo…  177  Gend… Female   
    ##  9 NVSS~2010~2~NV001~RAC01~Age-Standard…  2010 AK    Majo…  196. Race  Non-Hisp…
    ## 10 NVSS~2010~2~NV001~RAC07~Age-Standard…  2010 AK    Majo…  268. Race  Other    
    ## # ℹ 20,458 more rows
…
    ## `summarise()` has grouped output by 'year'. You can override using the
    ## `.groups` argument.

``` r
  plot2 <- plot2.1 %>%
    mutate(avg_rate = round(avg_rate, 1))
  print(plot2)
```

    ## # A tibble: 40 × 6
    ## # Groups:   year [10]
    ##     year sub_group     rate_sum avg_rate min_rate max_rate
    ##    <dbl> <chr>            <dbl>    <dbl>    <dbl>    <dbl>
    ##  1  2010 Black           38890     131.       8.9     491.
    ##  2  2010 Hispanic        15554.     72        4.8     274.
    ##  3  2010 Unknown/Other   18408.     77.7      2.7     386.
    ##  4  2010 White           43930.    106.       8       391.
    ##  5  2011 Black           37619.    128        8.3     443.
    ##  6  2011 Hispanic        15636.     71.1      4.9     270.
    ##  7  2011 Unknown/Other   18693      76.6      2.7     309.
    ##  8  2011 White           42830.    104.       5.6     384.
    ##  9  2012 Black           37086.    127.       9.5     468.
    ## 10  2012 Hispanic        15820.     68.2      5.2     284.
    ## # ℹ 30 more rows
…
    ## `summarise()` has grouped output by 'year', 'type'. You can override using the
    ## `.groups` argument.

``` r
  plot3 <- plot3.1 %>%
    mutate(avg_rate = round(avg_rate, 1))
  print(plot3)
```

    ## # A tibble: 80 × 4
    ## # Groups:   year, type [40]
    ##     year type                   sub_group avg_rate
    ##    <dbl> <chr>                  <chr>        <dbl>
    ##  1  2010 Coronary Heart Disease Female       115. 
    ##  2  2010 Coronary Heart Disease Male         174. 
    ##  3  2010 Heart Attack           Female        37.8
    ##  4  2010 Heart Attack           Male          59.1
    ##  5  2010 Heart Failure          Female        24.6
    ##  6  2010 Heart Failure          Male          22.3
    ##  7  2010 Stroke                 Female        34.1
    ##  8  2010 Stroke                 Male          28.1
    ##  9  2011 Coronary Heart Disease Female       109. 
    ## 10  2011 Coronary Heart Disease Male         170. 
    ## # ℹ 70 more rows
…
``` r
plot4 <- df_age1 %>% #------------------------------------- By Type, Overall
  filter(type != 'Type Unspecified') %>%  #excludes missing type
  group_by(year, type) %>%
  summarize(avg_rate = mean(rate))
```

    ## `summarise()` has grouped output by 'year'. You can override using the
    ## `.groups` argument.

``` r
print(plot4)
```

    ## # A tibble: 40 × 3
    ## # Groups:   year [10]
    ##     year type                   avg_rate
    ##    <dbl> <chr>                     <dbl>
    ##  1  2010 Coronary Heart Disease    127. 
    ##  2  2010 Heart Attack               44.7
    ##  3  2010 Heart Failure              22.6
    ##  4  2010 Stroke                     31.2
    ##  5  2011 Coronary Heart Disease    121. 
    ##  6  2011 Heart Attack               42.9
    ##  7  2011 Heart Failure              22.0
    ##  8  2011 Stroke                     30.1
    ##  9  2012 Coronary Heart Disease    119. 
    ## 10  2012 Heart Attack               41.3
    ## # ℹ 30 more rows
- **Plot 5 - Top/Bottom 5 States)**
- Includes mean rates of 5 states with lowest and highest avg. mortality
  rates during total period - Sort table based on avg_rate in ascending
  order - create table that includes only the top/bottom 5 states
  (exclude)

``` r
plot5.1 <- df_age1 %>% #------------------------------------- By Top/Bottom 5 States
  filter(state != "DC") %>%
  group_by(state) %>%
  summarize(avg_rate = mean(rate))
print(plot5.1)
```

    ## # A tibble: 51 × 2
    ##    state avg_rate
    ##    <chr>    <dbl>
    ##  1 AK        79.7
    ##  2 AL       118. 
    ##  3 AR       130. 
    ##  4 AZ        79.0
    ##  5 CA        88.5
    ##  6 CO        71.8
    ##  7 CT        79.8
    ##  8 DE        97.0
    ##  9 FL        83.6
    ## 10 GA        79.1
    ## # ℹ 41 more rows
…
